compiler/tests/simulation/counter.vcd
$date
  2026-03-10 12:39:54
$end
$version
  JZ-HDL Simulator 1.0
$end
$timescale 1ns $end
$scope module clocks $end
$var wire 1 ! clk $end
$upscope $end
$scope module wires $end
$var wire 1 " rst_n $end
$var wire 8 # count $end
$upscope $end
$enddefinitions $end
#0
0!
0"
b00100001 #
#5
1!
0"
b00000000 #
#10
0!
0"
b00000000 #
#15
1!
0"
b00000000 #
#20
0!
0"
b00000000 #
#25
1!
0"
b00000000 #
#30
0!
0"
b00000000 #
#35
1!
0"
b00000000 #
#40
0!
0"
b00000000 #
#45
1!
0"
b00000000 #
#50
0!
0"
b00000000 #
0!
1"
b00000000 #
#55
1!
1"
b00000001 #
#60
0!
1"
b00000001 #
#65
1!
1"
b00000010 #
#70
0!
1"
b00000010 #
#75
1!
1"
b00000011 #
#80
0!
1"
b00000011 #
#85
1!
1"
b00000100 #
#90
0!
1"
b00000100 #
#95
1!
1"
b00000101 #
#100
0!
1"
b00000101 #
#105
1!
1"
b00000110 #
#110
0!
1"
b00000110 #
#115
1!
1"
b00000111 #
#120
0!
1"
b00000111 #
#125
1!
1"
b00001000 #
#130
0!
1"
b00001000 #
#135
1!
1"
b00001001 #
#140
0!
1"
b00001001 #
#145
1!
1"
b00001010 #
#150
0!
1"
b00001010 #
