compiler/tests/simulation/dual_clock.vcd
$date
  2026-03-10 12:39:54
$end
$version
  JZ-HDL Simulator 1.0
$end
$timescale 1ns $end
$scope module clocks $end
$var wire 1 ! clk_a $end
$var wire 1 " clk_b $end
$upscope $end
$scope module wires $end
$var wire 1 # rst_n $end
$var wire 8 $ count_a $end
$var wire 8 % count_b $end
$upscope $end
$scope module dut $end
$var wire 8 & cnt_a $end
$var wire 8 ' cnt_b $end
$upscope $end
$enddefinitions $end
#0
0!
0"
0#
b00100001 $
b00000001 %
b00100001 &
b00000001 '
#1
0!
0"
0#
b00100001 $
b00000001 %
b00100001 &
b00000001 '
#2
0!
0"
0#
b00100001 $
b00000001 %
b00100001 &
b00000001 '
#3
0!
0"
0#
b00100001 $
b00000001 %
b00100001 &
b00000001 '
#4
0!
0"
0#
b00100001 $
b00000001 %
b00100001 &
b00000001 '
#5
1!
0"
0#
b00000000 $
b00000001 %
b00000000 &
b00000001 '
#6
1!
0"
0#
b00000000 $
b00000001 %
b00000000 &
b00000001 '
#7
1!
1"
0#
b00000000 $
b00000000 %
b00000000 &
b00000000 '
#8
1!
1"
0#
b00000000 $
b00000000 %
b00000000 &
b00000000 '
#9
1!
1"
0#
b00000000 $
b00000000 %
b00000000 &
b00000000 '
#10
0!
1"
0#
b00000000 $
b00000000 %
b00000000 &
b00000000 '
#11
0!
1"
0#
b00000000 $
b00000000 %
b00000000 &
b00000000 '
#12
0!
1"
0#
b00000000 $
b00000000 %
b00000000 &
b00000000 '
#13
0!
1"
0#
b00000000 $
b00000000 %
b00000000 &
b00000000 '
#14
0!
0"
0#
b00000000 $
b00000000 %
b00000000 &
b00000000 '
#15
1!
0"
0#
b00000000 $
b00000000 %
b00000000 &
b00000000 '
#16
1!
0"
0#
b00000000 $
b00000000 %
b00000000 &
b00000000 '
#17
1!
0"
0#
b00000000 $
b00000000 %
b00000000 &
b00000000 '
#18
1!
0"
0#
b00000000 $
b00000000 %
b00000000 &
b00000000 '
#19
1!
0"
0#
b00000000 $
b00000000 %
b00000000 &
b00000000 '
#20
0!
0"
0#
b00000000 $
b00000000 %
b00000000 &
b00000000 '
#21
0!
1"
0#
b00000000 $
b00000000 %
b00000000 &
b00000000 '
#22
0!
1"
0#
b00000000 $
b00000000 %
b00000000 &
b00000000 '
#23
0!
1"
0#
b00000000 $
b00000000 %
b00000000 &
b00000000 '
#24
0!
1"
0#
b00000000 $
b00000000 %
b00000000 &
b00000000 '
#25
1!
1"
0#
b00000000 $
b00000000 %
b00000000 &
b00000000 '
#26
1!
1"
0#
b00000000 $
b00000000 %
b00000000 &
b00000000 '
#27
1!
1"
0#
b00000000 $
b00000000 %
b00000000 &
b00000000 '
#28
1!
0"
0#
b00000000 $
b00000000 %
b00000000 &
b00000000 '
#29
1!
0"
0#
b00000000 $
b00000000 %
b00000000 &
b00000000 '
#30
0!
0"
0#
b00000000 $
b00000000 %
b00000000 &
b00000000 '
#31
0!
0"
0#
b00000000 $
b00000000 %
b00000000 &
b00000000 '
#32
0!
0"
0#
b00000000 $
b00000000 %
b00000000 &
b00000000 '
#33
0!
0"
0#
b00000000 $
b00000000 %
b00000000 &
b00000000 '
#34
0!
0"
0#
b00000000 $
b00000000 %
b00000000 &
b00000000 '
#35
1!
1"
0#
b00000000 $
b00000000 %
b00000000 &
b00000000 '
#36
1!
1"
0#
b00000000 $
b00000000 %
b00000000 &
b00000000 '
#37
1!
1"
0#
b00000000 $
b00000000 %
b00000000 &
b00000000 '
#38
1!
1"
0#
b00000000 $
b00000000 %
b00000000 &
b00000000 '
#39
1!
1"
0#
b00000000 $
b00000000 %
b00000000 &
b00000000 '
#40
0!
1"
0#
b00000000 $
b00000000 %
b00000000 &
b00000000 '
#41
0!
1"
0#
b00000000 $
b00000000 %
b00000000 &
b00000000 '
#42
0!
0"
0#
b00000000 $
b00000000 %
b00000000 &
b00000000 '
#43
0!
0"
0#
b00000000 $
b00000000 %
b00000000 &
b00000000 '
#44
0!
0"
0#
b00000000 $
b00000000 %
b00000000 &
b00000000 '
#45
1!
0"
0#
b00000000 $
b00000000 %
b00000000 &
b00000000 '
#46
1!
0"
0#
b00000000 $
b00000000 %
b00000000 &
b00000000 '
#47
1!
0"
0#
b00000000 $
b00000000 %
b00000000 &
b00000000 '
#48
1!
0"
0#
b00000000 $
b00000000 %
b00000000 &
b00000000 '
#49
1!
1"
0#
b00000000 $
b00000000 %
b00000000 &
b00000000 '
#50
0!
1"
0#
b00000000 $
b00000000 %
b00000000 &
b00000000 '
0!
1"
1#
b00000000 $
b00000000 %
b00000000 &
b00000000 '
#51
0!
1"
1#
b00000000 $
b00000000 %
b00000000 &
b00000000 '
#52
0!
1"
1#
b00000000 $
b00000000 %
b00000000 &
b00000000 '
#53
0!
1"
1#
b00000000 $
b00000000 %
b00000000 &
b00000000 '
#54
0!
1"
1#
b00000000 $
b00000000 %
b00000000 &
b00000000 '
#55
1!
1"
1#
b00000001 $
b00000000 %
b00000001 &
b00000000 '
#56
1!
0"
1#
b00000001 $
b00000000 %
b00000001 &
b00000000 '
#57
1!
0"
1#
b00000001 $
b00000000 %
b00000001 &
b00000000 '
#58
1!
0"
1#
b00000001 $
b00000000 %
b00000001 &
b00000000 '
#59
1!
0"
1#
b00000001 $
b00000000 %
b00000001 &
b00000000 '
#60
0!
0"
1#
b00000001 $
b00000000 %
b00000001 &
b00000000 '
#61
0!
0"
1#
b00000001 $
b00000000 %
b00000001 &
b00000000 '
#62
0!
0"
1#
b00000001 $
b00000000 %
b00000001 &
b00000000 '
#63
0!
1"
1#
b00000001 $
b00000001 %
b00000001 &
b00000001 '
#64
0!
1"
1#
b00000001 $
b00000001 %
b00000001 &
b00000001 '
#65
1!
1"
1#
b00000010 $
b00000001 %
b00000010 &
b00000001 '
#66
1!
1"
1#
b00000010 $
b00000001 %
b00000010 &
b00000001 '
#67
1!
1"
1#
b00000010 $
b00000001 %
b00000010 &
b00000001 '
#68
1!
1"
1#
b00000010 $
b00000001 %
b00000010 &
b00000001 '
#69
1!
1"
1#
b00000010 $
b00000001 %
b00000010 &
b00000001 '
#70
0!
0"
1#
b00000010 $
b00000001 %
b00000010 &
b00000001 '
#71
0!
0"
1#
b00000010 $
b00000001 %
b00000010 &
b00000001 '
#72
0!
0"
1#
b00000010 $
b00000001 %
b00000010 &
b00000001 '
#73
0!
0"
1#
b00000010 $
b00000001 %
b00000010 &
b00000001 '
#74
0!
0"
1#
b00000010 $
b00000001 %
b00000010 &
b00000001 '
#75
1!
0"
1#
b00000011 $
b00000001 %
b00000011 &
b00000001 '
#76
1!
0"
1#
b00000011 $
b00000001 %
b00000011 &
b00000001 '
#77
1!
1"
1#
b00000011 $
b00000010 %
b00000011 &
b00000010 '
#78
1!
1"
1#
b00000011 $
b00000010 %
b00000011 &
b00000010 '
#79
1!
1"
1#
b00000011 $
b00000010 %
b00000011 &
b00000010 '
#80
0!
1"
1#
b00000011 $
b00000010 %
b00000011 &
b00000010 '
#81
0!
1"
1#
b00000011 $
b00000010 %
b00000011 &
b00000010 '
#82
0!
1"
1#
b00000011 $
b00000010 %
b00000011 &
b00000010 '
#83
0!
1"
1#
b00000011 $
b00000010 %
b00000011 &
b00000010 '
#84
0!
0"
1#
b00000011 $
b00000010 %
b00000011 &
b00000010 '
#85
1!
0"
1#
b00000100 $
b00000010 %
b00000100 &
b00000010 '
#86
1!
0"
1#
b00000100 $
b00000010 %
b00000100 &
b00000010 '
#87
1!
0"
1#
b00000100 $
b00000010 %
b00000100 &
b00000010 '
#88
1!
0"
1#
b00000100 $
b00000010 %
b00000100 &
b00000010 '
#89
1!
0"
1#
b00000100 $
b00000010 %
b00000100 &
b00000010 '
#90
0!
0"
1#
b00000100 $
b00000010 %
b00000100 &
b00000010 '
#91
0!
1"
1#
b00000100 $
b00000011 %
b00000100 &
b00000011 '
#92
0!
1"
1#
b00000100 $
b00000011 %
b00000100 &
b00000011 '
#93
0!
1"
1#
b00000100 $
b00000011 %
b00000100 &
b00000011 '
#94
0!
1"
1#
b00000100 $
b00000011 %
b00000100 &
b00000011 '
#95
1!
1"
1#
b00000101 $
b00000011 %
b00000101 &
b00000011 '
#96
1!
1"
1#
b00000101 $
b00000011 %
b00000101 &
b00000011 '
#97
1!
1"
1#
b00000101 $
b00000011 %
b00000101 &
b00000011 '
#98
1!
0"
1#
b00000101 $
b00000011 %
b00000101 &
b00000011 '
#99
1!
0"
1#
b00000101 $
b00000011 %
b00000101 &
b00000011 '
#100
0!
0"
1#
b00000101 $
b00000011 %
b00000101 &
b00000011 '
#101
0!
0"
1#
b00000101 $
b00000011 %
b00000101 &
b00000011 '
#102
0!
0"
1#
b00000101 $
b00000011 %
b00000101 &
b00000011 '
#103
0!
0"
1#
b00000101 $
b00000011 %
b00000101 &
b00000011 '
#104
0!
0"
1#
b00000101 $
b00000011 %
b00000101 &
b00000011 '
#105
1!
1"
1#
b00000110 $
b00000100 %
b00000110 &
b00000100 '
#106
1!
1"
1#
b00000110 $
b00000100 %
b00000110 &
b00000100 '
#107
1!
1"
1#
b00000110 $
b00000100 %
b00000110 &
b00000100 '
#108
1!
1"
1#
b00000110 $
b00000100 %
b00000110 &
b00000100 '
#109
1!
1"
1#
b00000110 $
b00000100 %
b00000110 &
b00000100 '
#110
0!
1"
1#
b00000110 $
b00000100 %
b00000110 &
b00000100 '
#111
0!
1"
1#
b00000110 $
b00000100 %
b00000110 &
b00000100 '
#112
0!
0"
1#
b00000110 $
b00000100 %
b00000110 &
b00000100 '
#113
0!
0"
1#
b00000110 $
b00000100 %
b00000110 &
b00000100 '
#114
0!
0"
1#
b00000110 $
b00000100 %
b00000110 &
b00000100 '
#115
1!
0"
1#
b00000111 $
b00000100 %
b00000111 &
b00000100 '
#116
1!
0"
1#
b00000111 $
b00000100 %
b00000111 &
b00000100 '
#117
1!
0"
1#
b00000111 $
b00000100 %
b00000111 &
b00000100 '
#118
1!
0"
1#
b00000111 $
b00000100 %
b00000111 &
b00000100 '
#119
1!
1"
1#
b00000111 $
b00000101 %
b00000111 &
b00000101 '
#120
0!
1"
1#
b00000111 $
b00000101 %
b00000111 &
b00000101 '
#121
0!
1"
1#
b00000111 $
b00000101 %
b00000111 &
b00000101 '
#122
0!
1"
1#
b00000111 $
b00000101 %
b00000111 &
b00000101 '
#123
0!
1"
1#
b00000111 $
b00000101 %
b00000111 &
b00000101 '
#124
0!
1"
1#
b00000111 $
b00000101 %
b00000111 &
b00000101 '
#125
1!
1"
1#
b00001000 $
b00000101 %
b00001000 &
b00000101 '
#126
1!
0"
1#
b00001000 $
b00000101 %
b00001000 &
b00000101 '
#127
1!
0"
1#
b00001000 $
b00000101 %
b00001000 &
b00000101 '
#128
1!
0"
1#
b00001000 $
b00000101 %
b00001000 &
b00000101 '
#129
1!
0"
1#
b00001000 $
b00000101 %
b00001000 &
b00000101 '
#130
0!
0"
1#
b00001000 $
b00000101 %
b00001000 &
b00000101 '
#131
0!
0"
1#
b00001000 $
b00000101 %
b00001000 &
b00000101 '
#132
0!
0"
1#
b00001000 $
b00000101 %
b00001000 &
b00000101 '
#133
0!
1"
1#
b00001000 $
b00000110 %
b00001000 &
b00000110 '
#134
0!
1"
1#
b00001000 $
b00000110 %
b00001000 &
b00000110 '
#135
1!
1"
1#
b00001001 $
b00000110 %
b00001001 &
b00000110 '
#136
1!
1"
1#
b00001001 $
b00000110 %
b00001001 &
b00000110 '
#137
1!
1"
1#
b00001001 $
b00000110 %
b00001001 &
b00000110 '
#138
1!
1"
1#
b00001001 $
b00000110 %
b00001001 &
b00000110 '
#139
1!
1"
1#
b00001001 $
b00000110 %
b00001001 &
b00000110 '
#140
0!
0"
1#
b00001001 $
b00000110 %
b00001001 &
b00000110 '
#141
0!
0"
1#
b00001001 $
b00000110 %
b00001001 &
b00000110 '
#142
0!
0"
1#
b00001001 $
b00000110 %
b00001001 &
b00000110 '
#143
0!
0"
1#
b00001001 $
b00000110 %
b00001001 &
b00000110 '
#144
0!
0"
1#
b00001001 $
b00000110 %
b00001001 &
b00000110 '
#145
1!
0"
1#
b00001010 $
b00000110 %
b00001010 &
b00000110 '
#146
1!
0"
1#
b00001010 $
b00000110 %
b00001010 &
b00000110 '
#147
1!
1"
1#
b00001010 $
b00000111 %
b00001010 &
b00000111 '
#148
1!
1"
1#
b00001010 $
b00000111 %
b00001010 &
b00000111 '
#149
1!
1"
1#
b00001010 $
b00000111 %
b00001010 &
b00000111 '
#150
0!
1"
1#
b00001010 $
b00000111 %
b00001010 &
b00000111 '
#151
0!
1"
1#
b00001010 $
b00000111 %
b00001010 &
b00000111 '
#152
0!
1"
1#
b00001010 $
b00000111 %
b00001010 &
b00000111 '
#153
0!
1"
1#
b00001010 $
b00000111 %
b00001010 &
b00000111 '
#154
0!
0"
1#
b00001010 $
b00000111 %
b00001010 &
b00000111 '
#155
1!
0"
1#
b00001011 $
b00000111 %
b00001011 &
b00000111 '
#156
1!
0"
1#
b00001011 $
b00000111 %
b00001011 &
b00000111 '
#157
1!
0"
1#
b00001011 $
b00000111 %
b00001011 &
b00000111 '
#158
1!
0"
1#
b00001011 $
b00000111 %
b00001011 &
b00000111 '
#159
1!
0"
1#
b00001011 $
b00000111 %
b00001011 &
b00000111 '
#160
0!
0"
1#
b00001011 $
b00000111 %
b00001011 &
b00000111 '
#161
0!
1"
1#
b00001011 $
b00001000 %
b00001011 &
b00001000 '
#162
0!
1"
1#
b00001011 $
b00001000 %
b00001011 &
b00001000 '
#163
0!
1"
1#
b00001011 $
b00001000 %
b00001011 &
b00001000 '
#164
0!
1"
1#
b00001011 $
b00001000 %
b00001011 &
b00001000 '
#165
1!
1"
1#
b00001100 $
b00001000 %
b00001100 &
b00001000 '
#166
1!
1"
1#
b00001100 $
b00001000 %
b00001100 &
b00001000 '
#167
1!
1"
1#
b00001100 $
b00001000 %
b00001100 &
b00001000 '
#168
1!
0"
1#
b00001100 $
b00001000 %
b00001100 &
b00001000 '
#169
1!
0"
1#
b00001100 $
b00001000 %
b00001100 &
b00001000 '
#170
0!
0"
1#
b00001100 $
b00001000 %
b00001100 &
b00001000 '
#171
0!
0"
1#
b00001100 $
b00001000 %
b00001100 &
b00001000 '
#172
0!
0"
1#
b00001100 $
b00001000 %
b00001100 &
b00001000 '
#173
0!
0"
1#
b00001100 $
b00001000 %
b00001100 &
b00001000 '
#174
0!
0"
1#
b00001100 $
b00001000 %
b00001100 &
b00001000 '
#175
1!
1"
1#
b00001101 $
b00001001 %
b00001101 &
b00001001 '
#176
1!
1"
1#
b00001101 $
b00001001 %
b00001101 &
b00001001 '
#177
1!
1"
1#
b00001101 $
b00001001 %
b00001101 &
b00001001 '
#178
1!
1"
1#
b00001101 $
b00001001 %
b00001101 &
b00001001 '
#179
1!
1"
1#
b00001101 $
b00001001 %
b00001101 &
b00001001 '
#180
0!
1"
1#
b00001101 $
b00001001 %
b00001101 &
b00001001 '
#181
0!
1"
1#
b00001101 $
b00001001 %
b00001101 &
b00001001 '
#182
0!
0"
1#
b00001101 $
b00001001 %
b00001101 &
b00001001 '
#183
0!
0"
1#
b00001101 $
b00001001 %
b00001101 &
b00001001 '
#184
0!
0"
1#
b00001101 $
b00001001 %
b00001101 &
b00001001 '
#185
1!
0"
1#
b00001110 $
b00001001 %
b00001110 &
b00001001 '
#186
1!
0"
1#
b00001110 $
b00001001 %
b00001110 &
b00001001 '
#187
1!
0"
1#
b00001110 $
b00001001 %
b00001110 &
b00001001 '
#188
1!
0"
1#
b00001110 $
b00001001 %
b00001110 &
b00001001 '
#189
1!
1"
1#
b00001110 $
b00001010 %
b00001110 &
b00001010 '
#190
0!
1"
1#
b00001110 $
b00001010 %
b00001110 &
b00001010 '
