compiler/tests/simulation/print_sim.vcd
$date
  2026-03-09 17:08:41
$end
$version
  JZ-HDL Simulator 1.0
$end
$timescale 1ns $end
$scope module clocks $end
$var wire 1 ! clk $end
$upscope $end
$scope module wires $end
$var wire 1 " rst_n $end
$var wire 8 # count $end
$upscope $end
$enddefinitions $end
#0
0!
0"
b00100001 #
#5
1!
0"
b00000000 #
#10
0!
0"
b00000000 #
#15
1!
0"
b00000000 #
#20
0!
0"
b00000000 #
0!
1"
b00000000 #
#25
1!
1"
b00000001 #
#30
0!
1"
b00000001 #
#35
1!
1"
b00000010 #
#40
0!
1"
b00000010 #
#45
1!
1"
b00000011 #
#50
0!
1"
b00000011 #
#55
1!
1"
b00000100 #
#60
0!
1"
b00000100 #
#65
1!
1"
b00000101 #
#70
0!
1"
b00000101 #
#75
1!
1"
b00000110 #
#80
0!
1"
b00000110 #
#85
1!
1"
b00000111 #
#90
0!
1"
b00000111 #
#95
1!
1"
b00001000 #
#100
0!
1"
b00001000 #
#105
1!
1"
b00001001 #
#110
0!
1"
b00001001 #
#115
1!
1"
b00001010 #
#120
0!
1"
b00001010 #
